{
  "platformName": "ANDROID",
  "appium:deviceName": "ANDROID",
  "appium:platformVersion": "",
  "appium:udid": "<!-- Enter UDID -->",
  "appium:appPackage": "com.example.myapplication",
  "appium:appActivity":"com.example.myapplication.ui.login.LoginActivity",
  "appium:app": "D:/Program Files/qualityfusion/mobile/android/mobiletest.apk"
}